　__________________________________________________________________________
/                                                                          \
|                           _                                              |
|                          / \                         _                   |
|                  ___    / _ \   _ __ ___   ____  ___| |                  |
|                 / _ \  / /_\ \ | '_ ` _ \./  _ \/  _  |                  |
|                |  __/ /  ___  \| | | | | |  (_) ) (_) |                  |
|                 \___|/__/   \__\_| |_| |_|\____/\_____/                  |
|                                                                          |
|                              eAmod Script                                |
|                                                                          |
|--------------------------------------------------------------------------|
|                       eAmod - eAthena Modifications                      |
|                           Costumer Documentation                         |
|                                 Downloads                                |
|--------------------------------------------------------------------------|
| Created by: shellTeMP                                                    |
|--------------------------------------------------------------------------|
| Description: Documentation with links that can help eAmod users          |
| and customers                                                            |
|--------------------------------------------------------------------------|
| Changelog:                                                               |
| 1.0 - Initial Document Developed                                         |
\_________________________________________________________________________/


/*

--------------------------------------------------------
| Below are links that may be useful to eAmod customers:
--------------------------------------------------------

     1. Microsoft Visual C++ 2008 Express Edition SP1:
     -------------------------------------------------------------------------
     https://mega.nz/#!F4QAjCAT!_x4Pqqnx4KnGM7-bswuDKN04U8_-Ecz3HyTYdT8GMQg
     -------------------------------------------------------------------------
     
     2. Microsoft Visual Studio 2010 Express Edition:
     -------------------------------------------------------------------------
     https://mega.nz/#!p1YWlAJI!_xX1n3pQ1j2Kvnf2pyJMve3FTbTydbbOoOiDApKH8bM
     -------------------------------------------------------------------------

*/
